%YAML 1.1
%TAG !u! tag:unity3d.com,2011:
--- !u!1045 &1
EditorBuildSettings:
  m_ObjectHideFlags: 0
  serializedVersion: 2
  m_Scenes:
  - enabled: 1
    path: Assets/Scenes/GameLauncherScene.unity
    guid: 58758cb58bc3c9e4a8c9841220e97e7d
  - enabled: 1
    path: Assets/Scenes/GameScene.unity
    guid: 66c932ab5568c614bba75a21a5800424
  m_configObjects: {}
